module dopher

go 1.17

require (
	github.com/sirupsen/logrus v1.8.1
	github.com/spf13/cobra v1.4.0
)

require (
	github.com/inconshreveable/mousetrap v1.0.0 // indirect
	github.com/spf13/pflag v1.0.5 // indirect
	golang.org/x/sys v0.0.0-20191026070338-33540a1f6037 // indirect
)
